{
  "schema": "https://data.sciveyor.com/schema",
  "version": 5,
  "id": "doi:10.1371/journal.pntd.0001580",
  "doi": "10.1371/journal.pntd.0001580",
  "externalIds": [
    "pii:PNTD-D-11-01122"
  ],
  "license": "This is an open-access article distributed under the terms of the Creative Commons Attribution License, which permits unrestricted use, distribution, and reproduction in any medium, provided the original author and source are credited.",
  "licenseUrl": "https://plos.org/terms-of-use/",
  "dataSource": "Public Library of Science",
  "dataSourceUrl": "https://data.sciveyor.com/source/plos",
  "dataSourceVersion": 1,
  "type": "article",
  "title": "Human Bertielliasis in Amazonia: Case Report and Challenging Diagnosis",
  "authors": [
    {
      "name": "Adriano P. Furtado",
      "first": "Adriano P.",
      "last": "Furtado",
      "affiliation": "Instituto de Ciências Biológicas, Universidade Federal do Pará, Pará, Brazil"
    },
    {
      "name": "Evander de J. O. Batista",
      "first": "Evander de J. O.",
      "last": "Batista",
      "affiliation": "Núcleo de Medicina Tropical, Universidade Federal do Pará, Pará, Brazil"
    },
    {
      "name": "Evonnildo C. Gonçalves",
      "first": "Evonnildo C.",
      "last": "Gonçalves",
      "affiliation": "Instituto de Ciências Biológicas, Universidade Federal do Pará, Pará, Brazil"
    },
    {
      "name": "Anderson M. H. O. Silva",
      "first": "Anderson M. H. O.",
      "last": "Silva",
      "affiliation": "Instituto de Ciências Biológicas, Universidade Federal do Pará, Pará, Brazil"
    },
    {
      "name": "Francisco T. V. Melo",
      "first": "Francisco T. V.",
      "last": "Melo",
      "affiliation": "Instituto de Ciências Biológicas, Universidade Federal do Pará, Pará, Brazil"
    },
    {
      "name": "Elane G. Giese",
      "first": "Elane G.",
      "last": "Giese",
      "affiliation": "Instituto de Saúde e Produção Animal, Universidade Federal Rural da Amazônia, Pará, Brazil"
    },
    {
      "name": "Jeannie N. Santos",
      "first": "Jeannie N.",
      "last": "Santos",
      "affiliation": "Instituto de Ciências Biológicas, Universidade Federal do Pará, Pará, Brazil"
    }
  ],
  "journal": "PLoS Neglected Tropical Diseases",
  "date": "2012-06",
  "volume": "6",
  "number": "6",
  "pages": "e1580",
  "tags": [
    "Infectious Diseases",
    "Infectious diseases",
    "Medicine",
    "Neglected tropical diseases",
    "Parasitic diseases",
    "Parasitic intestinal diseases"
  ],
  "fullText": "Presentation of Case In May, 2009, a 4-year-old girl from the town of Oriximiná, Pará state, Brazil, experienced 15 days of nocturnal abdominal pain, weight loss, abdominal distension, and the presence of “white worms” in the stool, but no diarrhea. At the local hospital, even though a conclusive diagnosis was not available, albendazole was prescribed for 5 days. Following this treatment, worms were still found in the patient's faeces, so the child was taken to the Tropical Medicine Nucleus of the Federal University of Pará (UFPA), where cestode infection was confirmed. This diagnosis was followed by a single oral dose of praziquantel (10 mg/kg). During treatment, a further seven small fragments and one large portion of the worm's strobilus were expelled by the patient. The largest fragments were fixed in 10% formalin and others stored in saline solution, which were sent to the Cell Biology and Helmintology Laboratory at the UFPA for taxonomic analysis. The smaller fragments were still moving when they arrived at the laboratory (Figure 1A), and were exuding a white substance, which was analyzed under a miscroscope. A large number of spherical eggs—0.042–0.047 µm (0.045 µm; n = 10)×0.041–0.046 µm (0.043 µm; n = 10)—were observed. Shell thickness 0.004–0.005 µm (0.005 µm; n = 10), albuminous layer 0.034–0.043 µm (0.037 µm; n = 10)×0.034–0.037 µm (0.035 µm; n = 10), piriform apparatus 0.024–0.31 µm (0.028 µm; n = 10)×0.015–0.018 µm (0.017 µm; n = 10), which is bifurcated at the tip, with contiguous filaments, and oncospheres 0.013–0.014 µm (0.014 µm; n = 10) with six hooks, characteristics of the Anaplocephalidae family (Figure 1B). Five fragments were fixed under compression between two glass plates with AFA (2% acetic acid, 2% formaldehyde, and 93% 70% ethanol) for 24 hours. Some of the fragments were stained with carmine, and then dehydrated with ethanol, diaphanized in methyl salicylate, and mounted in Entellan. Under the microscope, 17–20 pregnant proglottids were observed per segment. The sides of the proglottids were not well defined, and appeared to be deteriorated. The female reproductive system presented unlobed ovaries, 0.42–0.82 µm (0.58 µm; n = 10)×0.21–0.40 µm (0.30 µm; n = 10), located in the poral side of the proglottid; vagina 1.10–3.53 µm (2.30 µm; n = 9)×0.14–0.26 µm (0.16 µm; n = 9), opening into a common atrium with the cirrus sac, and extending at the excretory canals. Genital pores were in an irregular, alternating arrangement. Only the cirrus sac—0.53–0.74 µm (0.61 µm; n = 7)×0.09–0.16 µm (0.11 µm; n = 7)—of the male reproductive system was observed, and it was not possible to define the number of testicles, which further hampered the identification of the genus (Figure 1C and 1D). The largest fragment of the strobilus was processed for setting in HistoResin. Sections of 3 µm were obtained and stained with 1% toluidine blue for histological analysis. Proglottids with a few eggs were observed in the uterus. Parasite tegument was damaged, presenting discontinuous portions. Few testes could be observed (Figure 1E). One of the fragments of the strobilus stored in saline solution was used for the molecular analysis of the 18S fragment of the ribosomal DNA, based on the protocol previously described [1]."
}