{
  "schema": "https://data.sciveyor.com/schema",
  "version": 5,
  "id": "doi:10.1371/journal.pntd.0000424",
  "doi": "10.1371/journal.pntd.0000424",
  "externalIds": [
    "pii:08-PNTD-PP-0302R2"
  ],
  "license": "This is an open-access article distributed under the terms of the Creative Commons Attribution License, which permits unrestricted use, distribution, and reproduction in any medium, provided the original author and source are credited.",
  "licenseUrl": "https://plos.org/terms-of-use/",
  "dataSource": "Public Library of Science",
  "dataSourceUrl": "https://data.sciveyor.com/source/plos",
  "dataSourceVersion": 1,
  "type": "article",
  "title": "Community-Based Control of a Neglected Tropical Disease: The Mossy Foot Treatment and Prevention Association",
  "authors": [
    {
      "name": "Gail Davey",
      "first": "Gail",
      "last": "Davey",
      "affiliation": "School of Public Health, Addis Ababa University, Addis Ababa, Ethiopia"
    },
    {
      "name": "Emily Burridge",
      "first": "Emily",
      "last": "Burridge",
      "affiliation": "St George's Hospital Medical School, London, United Kingdom"
    }
  ],
  "journal": "PLoS Neglected Tropical Diseases",
  "date": "2009-05",
  "volume": "3",
  "number": "5",
  "pages": "e424",
  "tags": [
    "Public Health and Epidemiology/Global Health",
    "Public Health and Epidemiology/Health Services Research and Economics"
  ],
  "fullText": "Introduction Podoconiosis (endemic non-filarial elephantiasis, also known as mossy foot) is a non-communicable disease now found exclusively in the tropics, caused by the conjunction of environmental, genetic, and economic factors. Silicate particles formed by the disintegration of lava in areas of high altitude (over 1,000 m) and seasonal rainfall (over 1,000 mm per annum) penetrate the skin of barefoot subsistence farmers, and in susceptible individuals cause lymphatic blockage and subsequent elephantiasis [1]. Although an estimated one million Ethiopians (of a total population of 77 million) are afflicted with podoconiosis [2], which creates a huge economic burden in endemic areas [3], no national policy has yet been developed to control or prevent the condition, and most affected communities remain unaware of treatment options. The Mossy Foot Treatment and Prevention Association The Mossy Foot Treatment and Prevention Association (MFTPA) is an Ethiopian non-governmental organization founded in 1998 and registered with the Ethiopian Ministry of Justice in 2000. From inception, its mission has been the treatment and prevention of podoconiosis. The MFTPA is based in Wolaita zone, southern Ethiopia, an area of 1.7 million inhabitants known to bear a heavy podoconiosis burden [2], and was founded by health professionals who were concerned by the lack of treatment available for patients, and the reaction patients met when trying to access government services in this highly endemic area. From a modest beginning treating 1,000 patients per year at one central site, the organization has developed so that 35,000 patients are now treated annually at 15 outreach sites. The MFTPA is organized into clinical, social work, and administration sections. At present, clinics offering health education and treatment are held weekly at 15 sites located between 15 and 65 km of the headquarters in Sodo town, southern Ethiopia. Clinics are run by community podoconiosis agents (CPAs) who are themselves patients, and social workers who are recruited from the local community. Both these groups of workers are paid a monthly salary by the MFTPA. CPAs are managed by the project director and social workers by the head of social work, both of whom visit at least each fortnight to supervise and replenish supplies of treatment consumables. The project director is also responsible for initiating and monitoring network groups. These groups are made up of local leaders from government offices, schools, churches, and women's groups. Network group participants are unpaid, and take on the role of promoting “community conversations” after receiving training about the disease and its control. Quarterly meetings of CPAs, social workers, and network group representatives are held in Sodo town, and include in-service training, feedback of performance evaluation, and joint strategy planning. Most funding for the MFTPA comesfrom the Mossy Foot Project, a United States–registered fund-raising organization. A relatively small proportion comes from within Ethiopia, through project grants and donations. The Ethiopian Federal Ministry of Health contributes “in kind” through use of the grounds and storage areas of government health clinics for MFTPA clinic sites. The Ministry of Health has encouraged the MFTPA to take a"
}