{
  "schema": "https://data.sciveyor.com/schema",
  "version": 5,
  "id": "doi:10.1371/journal.pntd.0000572",
  "doi": "10.1371/journal.pntd.0000572",
  "externalIds": [
    "pii:09-PNTD-SM-0419R2"
  ],
  "license": "This is an open-access article distributed under the terms of the Creative Commons Attribution License, which permits unrestricted use, distribution, and reproduction in any medium, provided the original author and source are credited.",
  "licenseUrl": "https://plos.org/terms-of-use/",
  "dataSource": "Public Library of Science",
  "dataSourceUrl": "https://data.sciveyor.com/source/plos",
  "dataSourceVersion": 1,
  "type": "article",
  "title": "Pulmonary Loiasis and HIV Coinfection in Rural Cameroon",
  "authors": [
    {
      "name": "Alexis Cambanis",
      "first": "Alexis",
      "last": "Cambanis",
      "affiliation": "St. Elizabeth Hospital, Shisong, Cameroon; Tropical Medicine Program, PIH-UCI Family Medicine Residency, Whittier, California, United States of America"
    }
  ],
  "journal": "PLoS Neglected Tropical Diseases",
  "date": "2010-03",
  "volume": "4",
  "number": "3",
  "pages": "e572",
  "tags": [
    "Infectious Diseases/HIV Infection and AIDS",
    "Infectious Diseases/Helminth Infections",
    "Infectious Diseases/Neglected Tropical Diseases",
    "Respiratory Medicine/Pleural Diseases, including Mesothelioma"
  ],
  "fullText": "Presentation of Case A 38-year-old man presented to a rural hospital in Northwest Cameroon with a one-month history of dyspnea that worsened upon exertion. He reported occasional cough, which was nonproductive. Review of systems revealed a fall in weight from 81 kg to 71 kg over the last year, but no other problems were noted. The patient initially sought care at a health center in Douala (10 hours away by public transport), where he was treated for typhoid with no improvement. On physical examination, temperature was 37.8°C, blood pressure 110/70 mmHg, pulse 88 beats per minute, and respiratory rate 28 breaths per minute. He was noncachectic without thrush or lymphadenopathy. Lung auscultation revealed no bronchial breath sounds or wheezes, but decreased breath sounds and dullness to percussion were noted at both lung bases, and a chest radiograph showed dense bibasilar opacities (Figure 1). Diagnostic thoracentesis confirmed the presence of exudative pleural effusion; cytological examination yielded 435 white blood cells/mm3 (84% lymphocytes, 10% neutrophils, and 6% eosinophils), 240 red blood cells/mm3, and numerous motile microfilariae (mff) throughout the specimen (see Video S1). A smear was made of the pleural aspirate and the filarial species identified as Loa loa based on morphological features (Figure 2). Other laboratory investigations included hemoglobin of 9.3 mg/dl, white blood cells 9,800/mm3, a thick blood film negative for malaria parasites, and a positive HIV serology test. His CD4 count was 954 cells/µl. Peripheral blood was not examined for microfilariae. After discussing these results with his physician, the patient received a single dose of ivermectin (150 µg/kg body weight) and all other medications that had been ordered by the admitting team—including multiple broad-spectrum antibiotics, ventolin, and amodiaquine—were stopped. A short course of prednisone was initiated to reduce potential reaction to parasite antigens. The next day, he left the hospital in stable condition. Follow-up examination three weeks later showed normalization of his vital signs and total resolution of the pleural effusions on repeat radiography (Figure 1). The patient was encouraged to participate in the annual ivermectin campaigns common in the area and to monitor his HIV infection at his local medical center. Case Discussion Loiasis in sub-Saharan Africa Loa loa is a filarial nematode transmitted by Chrysops tabanid flies and is limited to West and Central Africa. Most infected people remain asymptomatic, but after a latency period from 6 months to several years, clinical symptoms may develop, most often intermittent edematous lesions in the extremities (Calabar swellings) or passage of the adult worm under the conjunctiva [1]. It is estimated that between 2 and 13 million people are infected with Loa loa, and a recent survey in the Eastern Province of Cameroon showed a microfilarial prevalence of over 20% in most villages and over 45% in several areas, with twice that level of clinical manifestations [2]. There have been rare reports of pulmonary involvement manifested as eosinophilic infiltrates [3], [4] in Cameroon and one case of pleural effusion that contained microfilariae of Loa loa in a Ghanaian patient who"
}