{
  "schema": "https://data.sciveyor.com/schema",
  "version": 5,
  "id": "doi:10.1371/journal.pntd.0001383",
  "doi": "10.1371/journal.pntd.0001383",
  "externalIds": [
    "pii:PNTD-D-11-00024"
  ],
  "license": "This is an open-access article distributed under the terms of the Creative Commons Attribution License, which permits unrestricted use, distribution, and reproduction in any medium, provided the original author and source are credited.",
  "licenseUrl": "https://plos.org/terms-of-use/",
  "dataSource": "Public Library of Science",
  "dataSourceUrl": "https://data.sciveyor.com/source/plos",
  "dataSourceVersion": 1,
  "type": "article",
  "title": "Induction of CD4+CD25+FOXP3+ Regulatory T Cells during Human Hookworm Infection Modulates Antigen-Mediated Lymphocyte Proliferation",
  "authors": [
    {
      "name": "Natasha Delaqua Ricci",
      "first": "Natasha Delaqua",
      "last": "Ricci",
      "affiliation": "Department of Parasitology, Universidade Federal de Minas Gerais, Belo Horizonte, Minas Gerais, Brazil; Instituto Nacional de Ciência e Tecnologia em Doenças Tropicais (INCT-DT), Brazil"
    },
    {
      "name": "Jacqueline Araújo Fiúza",
      "first": "Jacqueline Araújo",
      "last": "Fiúza",
      "affiliation": "Department of Parasitology, Universidade Federal de Minas Gerais, Belo Horizonte, Minas Gerais, Brazil; Laboratory of Cellular and Molecular Immunology, Centro de Pesquisas René Rachou, Fundação Oswaldo Cruz, Belo Horizonte, Minas Gerais, Brazil"
    },
    {
      "name": "Lilian Lacerda Bueno",
      "first": "Lilian Lacerda",
      "last": "Bueno",
      "affiliation": "Department of Parasitology, Universidade Federal de Minas Gerais, Belo Horizonte, Minas Gerais, Brazil"
    },
    {
      "name": "Guilherme Grossi Lopes Cançado",
      "first": "Guilherme Grossi Lopes",
      "last": "Cançado",
      "affiliation": "Department of Parasitology, Universidade Federal de Minas Gerais, Belo Horizonte, Minas Gerais, Brazil; Clinical Hospital, Universidade Federal de Minas Gerais, Belo Horizonte, Minas Gerais, Brazil"
    },
    {
      "name": "Pedro Henrique Gazzinelli-Guimarães",
      "first": "Pedro Henrique",
      "last": "Gazzinelli-Guimarães",
      "affiliation": "Department of Parasitology, Universidade Federal de Minas Gerais, Belo Horizonte, Minas Gerais, Brazil; Instituto Nacional de Ciência e Tecnologia em Doenças Tropicais (INCT-DT), Brazil"
    },
    {
      "name": "Virgillio Gandra Martins",
      "first": "Virgillio Gandra",
      "last": "Martins",
      "affiliation": "Department of Parasitology, Universidade Federal de Minas Gerais, Belo Horizonte, Minas Gerais, Brazil; Instituto Nacional de Ciência e Tecnologia em Doenças Tropicais (INCT-DT), Brazil"
    },
    {
      "name": "Leonardo Ferreira Matoso",
      "first": "Leonardo Ferreira",
      "last": "Matoso",
      "affiliation": "Laboratory of Cellular and Molecular Immunology, Centro de Pesquisas René Rachou, Fundação Oswaldo Cruz, Belo Horizonte, Minas Gerais, Brazil"
    },
    {
      "name": "Rodrigo Rodrigues Cambraia de Miranda",
      "first": "Rodrigo Rodrigues Cambraia de",
      "last": "Miranda",
      "affiliation": "Department of Parasitology, Universidade Federal de Minas Gerais, Belo Horizonte, Minas Gerais, Brazil"
    },
    {
      "name": "Stefan Michael Geiger",
      "first": "Stefan Michael",
      "last": "Geiger",
      "affiliation": "Laboratory of Cellular and Molecular Immunology, Centro de Pesquisas René Rachou, Fundação Oswaldo Cruz, Belo Horizonte, Minas Gerais, Brazil"
    },
    {
      "name": "Rodrigo Correa-Oliveira",
      "first": "Rodrigo",
      "last": "Correa-Oliveira",
      "affiliation": "Instituto Nacional de Ciência e Tecnologia em Doenças Tropicais (INCT-DT), Brazil; Laboratory of Cellular and Molecular Immunology, Centro de Pesquisas René Rachou, Fundação Oswaldo Cruz, Belo Horizonte, Minas Gerais, Brazil"
    },
    {
      "name": "Andréa Gazzinelli",
      "first": "Andréa",
      "last": "Gazzinelli",
      "affiliation": "Instituto Nacional de Ciência e Tecnologia em Doenças Tropicais (INCT-DT), Brazil; School of Nursing, Universidade Federal de Minas Gerais, Belo Horizonte, Minas Gerais, Brazil"
    },
    {
      "name": "Daniella Castanheira Bartholomeu",
      "first": "Daniella Castanheira",
      "last": "Bartholomeu",
      "affiliation": "Department of Parasitology, Universidade Federal de Minas Gerais, Belo Horizonte, Minas Gerais, Brazil"
    },
    {
      "name": "Ricardo Toshio Fujiwara",
      "first": "Ricardo Toshio",
      "last": "Fujiwara",
      "affiliation": "Department of Parasitology, Universidade Federal de Minas Gerais, Belo Horizonte, Minas Gerais, Brazil; Instituto Nacional de Ciência e Tecnologia em Doenças Tropicais (INCT-DT), Brazil; Laboratory of Cellular and Molecular Immunology, Centro de Pesquisas René Rachou, Fundação Oswaldo Cruz, Belo Horizonte, Minas Gerais, Brazil"
    }
  ],
  "journal": "PLoS Neglected Tropical Diseases",
  "date": "2011-11",
  "dateAccepted": "2011-09-18",
  "dateReceived": "2011-01-10",
  "volume": "5",
  "number": "11",
  "pages": "e1383",
  "tags": [
    "Biology",
    "Immunity",
    "Immunology",
    "Infectious Diseases",
    "Infectious diseases",
    "Medicine",
    "Microbiology",
    "Parasitology",
    "Zoology"
  ],
  "abstract": "Hookworm infection is considered one of the most important poverty-promoting neglected tropical diseases, infecting 576 to 740 million people worldwide, especially in the tropics and subtropics. These blood-feeding nematodes have a remarkable ability to downmodulate the host immune response, protecting themselves from elimination and minimizing severe host pathology. While several mechanisms may be involved in the immunomodulation by parasitic infection, experimental evidences have pointed toward the possible involvement of regulatory T cells (Tregs) in downregulating effector T-cell responses upon chronic infection. However, the role of Tregs cells in human hookworm infection is still poorly understood and has not been addressed yet. In the current study we observed an augmentation of circulating CD4+CD25+FOXP3+ regulatory T cells in hookworm-infected individuals compared with healthy non-infected donors. We have also demonstrated that infected individuals present higher levels of circulating Treg cells expressing CTLA-4, GITR, IL-10, TGF-β and IL-17. Moreover, we showed that hookworm crude antigen stimulation reduces the number of CD4+CD25+FOXP3+ T regulatory cells co-expressing IL-17 in infected individuals. Finally, PBMCs from infected individuals pulsed with excreted/secreted products or hookworm crude antigens presented an impaired cellular proliferation, which was partially augmented by the depletion of Treg cells. Our results suggest that Treg cells may play an important role in hookworm-induced immunosuppression, contributing to the longevity of hookworm survival in infected people.",
  "fullText": "Introduction Human hookworm infection is mainly caused by the blood-feeding nematodes Ancylostoma duodenale and Necator americanus, which infects 576 to 740 million people worldwide, especially in the tropics and subtropics [1], [2], [3]. Hookworm is considered one of the thirteen poverty-promoting neglected tropical diseases, and the second most important parasitic infection of humans [4]. This infection takes a particularly devastating toll on the most vulnerable of the world's population, including children, productive men, and women of childbearing age [5], [6], [7]. Persistent blood and serum protein loss attributable to chronic hookworm infection are associated with anemia, malnutrition, and growth/cognitive retardation, resulting in the annually loss of tens of millions of disability adjusted life-years (DALYs) [8]. Despite its overall impact over the global public health system, the immunomodulatory mechanisms associated with hookworm survival on host's intestine in face of an immunologically hostile environment are not yet fully understood. Human hookworm infection is a longstanding, chronic infection with complex life cycle stages and host-parasite interactions. Although this parasitic infection may seem unnoticed by the immune system, an intense T helper (Th) 2 phenotype immune response is mounted by the host against this helminthic infection [9]. In recent years, evidence has accumulated that the immune response to hookworms may not be a simple polarized and putatively protective Th2 response, but rather a mixture of Th1/Th2 responses, presenting significant levels of interferon gamma and IL-12 production [10]. In fact, hookworms have a remarkable ability to downmodulate the host immune response, protecting themselves from elimination and minimizing severe host pathology. The parasite may promote its survival by excreting/secreting a panel of molecular immunosuppressive agents and, possibly, by stimulating the appearance of regulatory T-cell populations. Among the most striking aspects already described of this downregulation is the ablation of parasite specific T cell proliferative responses (“hyporesponsiveness”) [11]. Indeed, hookworm infection in animal models has been classically associated with impaired lymphocyte proliferation, functional defects in antigen presentation/processing and increased secretion of nitric oxide [12]. Recently, Fujiwara et al. have also shown that human dendritic cells differentiation and maturation may also be downmodulated by these worms, contributing to the T cell hyporesponsive state observed in individuals chronically infected with N. americanus [13]. The discovery of regulatory T lymphocytes (Treg) that are actively involved in maintaining immune tolerance has recently led to new insights into mechanisms of tolerance breakdown and/or immunoregulation in human diseases, including those resulting from allergic, autoimmune, or infectious causes [14]. These cells have been shown to suppress cellular immune responses through direct contact with immune effector cells and by the production of regulatory cytokines, including TGF-β and IL-10 [15], [16]. In fact, Geiger et al. have shown that hookworm infection is accompanied by elevated levels hookworm antigen-specific IL-10 production dependent on parasite stage, as well as significantly higher levels of CD4+/CD25+ T-cells [11]. While studies in experimental models have provided evidence for increased FOXP3+ (forkhead box P3 transcription factor) Treg function during different helminth infections [17], [18], [19], the role of Tregs cells in human"
}