{
  "schema": "https://data.sciveyor.com/schema",
  "version": 5,
  "id": "doi:10.1371/journal.pntd.0000702",
  "doi": "10.1371/journal.pntd.0000702",
  "externalIds": [
    "pii:09-PNTD-RA-0728R3"
  ],
  "license": "This is an open-access article distributed under the terms of the Creative Commons Attribution License, which permits unrestricted use, distribution, and reproduction in any medium, provided the original author and source are credited.",
  "licenseUrl": "https://plos.org/terms-of-use/",
  "dataSource": "Public Library of Science",
  "dataSourceUrl": "https://data.sciveyor.com/source/plos",
  "dataSourceVersion": 1,
  "type": "article",
  "title": "The Sudden Dominance of blaCTX–M Harbouring Plasmids in Shigella spp. Circulating in Southern Vietnam",
  "authors": [
    {
      "name": "Nguyen Thi Khanh Nhu",
      "first": "Nguyen Thi Khanh",
      "last": "Nhu",
      "affiliation": "The Hospital for Tropical Diseases, Ho Chi Minh City, Vietnam; The Oxford University Clinical Research Unit, The Hospital for Tropical Diseases, Ho Chi Minh City, Vietnam"
    },
    {
      "name": "Ha Vinh",
      "first": "Ha",
      "last": "Vinh",
      "affiliation": "The Hospital for Tropical Diseases, Ho Chi Minh City, Vietnam; The Oxford University Clinical Research Unit, The Hospital for Tropical Diseases, Ho Chi Minh City, Vietnam"
    },
    {
      "name": "Tran Vu Thieu Nga",
      "first": "Tran Vu Thieu",
      "last": "Nga",
      "affiliation": "The Hospital for Tropical Diseases, Ho Chi Minh City, Vietnam; The Oxford University Clinical Research Unit, The Hospital for Tropical Diseases, Ho Chi Minh City, Vietnam"
    },
    {
      "name": "Richard Stabler",
      "first": "Richard",
      "last": "Stabler",
      "affiliation": "The Pathogen Molecular Biology Unit, The London School of Hygiene and Tropical Medicine, London, United Kingdom"
    },
    {
      "name": "Pham Thanh Duy",
      "first": "Pham Thanh",
      "last": "Duy",
      "affiliation": "The Hospital for Tropical Diseases, Ho Chi Minh City, Vietnam; The Oxford University Clinical Research Unit, The Hospital for Tropical Diseases, Ho Chi Minh City, Vietnam"
    },
    {
      "name": "Le Thi Minh Vien",
      "first": "Le",
      "last": "Thi Minh Vien",
      "affiliation": "The Hospital for Tropical Diseases, Ho Chi Minh City, Vietnam; The Oxford University Clinical Research Unit, The Hospital for Tropical Diseases, Ho Chi Minh City, Vietnam"
    },
    {
      "name": "H. Rogier van Doorn",
      "first": "H. Rogier",
      "last": "van Doorn",
      "affiliation": "The Oxford University Clinical Research Unit, The Hospital for Tropical Diseases, Ho Chi Minh City, Vietnam; Centre for Tropical Medicine, Nuffield Department of Clinical Medicine, Oxford University, Oxford, United Kingdom"
    },
    {
      "name": "Ana Cerdeño-Tárraga",
      "first": "Ana",
      "last": "Cerdeño-Tárraga",
      "affiliation": "EMBL-EBI, Wellcome Trust Genome Campus, Hinxton, Cambridge, United Kingdom"
    },
    {
      "name": "Nicholas Thomson",
      "first": "Nicholas",
      "last": "Thomson",
      "affiliation": "Pathogen Genomics, The Wellcome Trust Sanger Institute, Cambridge, United Kingdom"
    },
    {
      "name": "James Campbell",
      "first": "James",
      "last": "Campbell",
      "affiliation": "The Oxford University Clinical Research Unit, The Hospital for Tropical Diseases, Ho Chi Minh City, Vietnam; Centre for Tropical Medicine, Nuffield Department of Clinical Medicine, Oxford University, Oxford, United Kingdom"
    },
    {
      "name": "Nguyen Van Minh Hoang",
      "first": "Nguyen",
      "last": "Van Minh Hoang",
      "affiliation": "The Hospital for Tropical Diseases, Ho Chi Minh City, Vietnam; The Oxford University Clinical Research Unit, The Hospital for Tropical Diseases, Ho Chi Minh City, Vietnam"
    },
    {
      "name": "Tran Thi Thu Nga",
      "first": "Tran",
      "last": "Thi Thu Nga",
      "affiliation": "The Hospital for Tropical Diseases, Ho Chi Minh City, Vietnam; The Oxford University Clinical Research Unit, The Hospital for Tropical Diseases, Ho Chi Minh City, Vietnam"
    },
    {
      "name": "Pham Van Minh",
      "first": "Pham Van",
      "last": "Minh",
      "affiliation": "The Hospital for Tropical Diseases, Ho Chi Minh City, Vietnam; The Oxford University Clinical Research Unit, The Hospital for Tropical Diseases, Ho Chi Minh City, Vietnam"
    },
    {
      "name": "Cao Thu Thuy",
      "first": "Cao Thu",
      "last": "Thuy",
      "affiliation": "The Hospital for Tropical Diseases, Ho Chi Minh City, Vietnam; The Oxford University Clinical Research Unit, The Hospital for Tropical Diseases, Ho Chi Minh City, Vietnam"
    },
    {
      "name": "Brendan Wren",
      "first": "Brendan",
      "last": "Wren",
      "affiliation": "The Pathogen Molecular Biology Unit, The London School of Hygiene and Tropical Medicine, London, United Kingdom"
    },
    {
      "name": "Jeremy Farrar",
      "first": "Jeremy",
      "last": "Farrar",
      "affiliation": "The Oxford University Clinical Research Unit, The Hospital for Tropical Diseases, Ho Chi Minh City, Vietnam; Centre for Tropical Medicine, Nuffield Department of Clinical Medicine, Oxford University, Oxford, United Kingdom"
    },
    {
      "name": "Stephen Baker",
      "first": "Stephen",
      "last": "Baker",
      "affiliation": "The Oxford University Clinical Research Unit, The Hospital for Tropical Diseases, Ho Chi Minh City, Vietnam; Centre for Tropical Medicine, Nuffield Department of Clinical Medicine, Oxford University, Oxford, United Kingdom"
    }
  ],
  "journal": "PLoS Neglected Tropical Diseases",
  "date": "2010-06",
  "dateAccepted": "2010-04-08",
  "dateReceived": "2009-12-21",
  "volume": "4",
  "number": "6",
  "pages": "e702",
  "tags": [
    "Gastroenterology and Hepatology/Gastrointestinal Infections",
    "Infectious Diseases/Antimicrobials and Drug Resistance",
    "Microbiology/Medical Microbiology"
  ],
  "abstract": "Background\n\nPlasmid mediated antimicrobial resistance in the Enterobacteriaceae is a global problem. The rise of CTX-M class extended spectrum beta lactamases (ESBLs) has been well documented in industrialized countries. Vietnam is representative of a typical transitional middle income country where the spectrum of infectious diseases combined with the spread of drug resistance is shifting and bringing new healthcare challenges.\n\nMethodology\n\nWe collected hospital admission data from the pediatric population attending the hospital for tropical diseases in Ho Chi Minh City with Shigella infections. Organisms were cultured from all enrolled patients and subjected to antimicrobial susceptibility testing. Those that were ESBL positive were subjected to further investigation. These investigations included PCR amplification for common ESBL genes, plasmid investigation, conjugation, microarray hybridization and DNA sequencing of a blaCTX–M encoding plasmid.\n\nPrincipal Findings\n\nWe show that two different blaCTX-M genes are circulating in this bacterial population in this location. Sequence of one of the ESBL plasmids shows that rather than the gene being integrated into a preexisting MDR plasmid, the blaCTX-M gene is located on relatively simple conjugative plasmid. The sequenced plasmid (pEG356) carried the blaCTX-M-24 gene on an ISEcp1 element and demonstrated considerable sequence homology with other IncFI plasmids.\n\nSignificance\n\nThe rapid dissemination, spread of antimicrobial resistance and changing population of Shigella spp. concurrent with economic growth are pertinent to many other countries undergoing similar development. Third generation cephalosporins are commonly used empiric antibiotics in Ho Chi Minh City. We recommend that these agents should not be considered for therapy of dysentery in this setting.",
  "fullText": "Introduction Enterobacteriaceae that have the capability to express CTX-M (so named because of their hydrolytic activity against cefotaxime) family extended spectrum beta lactamases (ESBLs) have emerged as a major health threat worldwide [1], [2]. Most of the research in this area is conducted in industrialized countries, where organisms, such as Escherichia coli and Klebsiella spp., mostly from urinary tract infections are the commonest source [3], [4], [5]. Relatively little is known about the distribution of such genes in organisms found developing or countries undergoing an economic transition, where the circulating pathogens may differ. Enterobacteriaceae capable of producing ESBLs have been described previously in South East Asia [6], [7]. Ho Chi Minh City in southern Vietnam is typical of many cities where patterns of infectious diseases are changing due to rapid economic growth, better access to health care and improving infrastructure. We recently showed that 42% of healthy people carried ESBL producing bacteria as part of their regular intestinal flora [8]. This previous work suggested that commensal organisms play a role in the dissemination and maintenance of such antimicrobial resistance genes in the population. Furthermore, the uncontrolled use of antimicrobials in the human population and in livestock rearing may lead to further problems with drug resistance and even more limited therapeutic options. Shigellosis is a gastrointestinal infection caused by members by Shigella spp. Due to the faecal oral route of transmission of the Shigellae, children less than five years old and living in developing countries have the highest incidence [9], [10]. In our hospital in Ho Chi Minh City, shigellosis is the leading cause of paediatric diarrhoeal admission with bacterial aetiology. The infection is typically self limiting, although antimicrobial treatment is necessary for the young and those that are severely ill as it ensures fewer complications and curtails the duration of the disease [11]. Fluoroquinolones are the drugs of choice to treat Shigella infections in both adults and children [12]. However, as with many other members of the Enterobacteriaceae, mutations in the genes encoding the target proteins for fluoroquinolones are common in Shigella [13], [14]. Our recent findings show that patients with shigellosis are staying in hospital for longer periods compared with 5 and 10 years ago and the disease severity has concurrently increased [15]. Interestingly, at the same time there has been a significant species shift from S. flexneri to S. sonnei isolated from patients [15]. Patients here are treated with fluoroquinolones, however, those patients that do not respond to the standard therapy are treated with third generation cephalosporins (mainly ceftriaxone). The intravenous third generation cephalosporins are amongst the most commonly used antimicrobials in hospitals in Ho Chi Minh City and the oral second and third generation cephalosporins are also widely available in the community. Antimicrobial resistance in the Shigellae is common; these organisms are closely related to E. coli and are readily transformed by exogenous DNA [16], [17], [18]. The distribution of antimicrobial resistance is, however, often different depending on the species. A multi-centre study across Asia demonstrated that"
}